{
    "extensionName": {
        "message": "Customizable web home",
        "description": "Name of the extension."
    },
    "extensionDescription": {
        "message": "Changes the home page and the new tab page to a customizable web page",
        "description": "Description of the extension."
    },
    "pageTitle": {
        "message": "Home",
        "description": "Title of the home page."
    },
    "searchBarTitle": {
        "message": "Search bar",
        "description": "Title of the search bar."
    },
    "searchSelectorTitle": {
        "message": "Search engine",
        "description": "Title of the search engine selector."
    },
    "searchSubmitLabel": {
        "message": "Search",
        "description": "Label of the submit search button."
    },
    "editMarkLabel": {
        "message": "Edit",
        "description": "Label of the edit mark."
    },
    "editSiteNameLabel": {
        "message": "Name of site:",
        "description": "Label that ask for the name of the site in the edit site menu."
    },
    "editSiteLinkLabel": {
        "message": "Link to site:",
        "description": "Label that ask for the link fo the site in the edit site menu."
    },
    "editSiteCancelLabel": {
        "message": "Cancel",
        "description": "Label for the cancel button in the edit site menu."
    },
    "editSiteSaveLabel": {
        "message": "Save",
        "description": "Label for the save button in the edit site menu."
    },
    "preferencesSectionTableLabel": {
        "message": "Configure table of sites",
        "description": "Label of the configure table section in the preferences."
    },
    "preferencesAddRowLabel": {
        "message": "Add a row",
        "description": "Label of the add a row button."
    },
    "preferencesAddColumnLabel": {
        "message": "Add a column",
        "description": "Label of the add a column button."
    },
    "preferencesDeleteRowLabel": {
        "message": "Delete a row",
        "description": "Label of the delete a row button."
    },
    "preferencesDeleteColumnLabel": {
        "message": "Delete a column",
        "description": "Label of the delete a column button."
    },
    "preferencesSectionOthersLabel": {
        "message": "Other options",
        "description": "Label of the other options section in the preferences."
    },
    "preferencesBodyColorLabel": {
        "message": "Background color:",
        "description": "Label of the color picker for the background color."
    },
    "preferencesDefaultSearchSelectorLabel": {
        "message": "Default search engine:",
        "description": "Label of the default search engine selector."
    },
    "preferencesCornersSelectorLabel": {
        "message": "Corners mode:",
        "description": "Label of the corners mode selector."
    },
    "preferencesCornersModeDefaultLabel": {
        "message": "Default",
        "description": "Label of the default corners mode."
    },
    "preferencesCornersModeCustomLabel": {
        "message": "Custom",
        "description": "Label of the custom corners mode."
    },
    "preferencesCornersModeNoneLabel": {
        "message": "None",
        "description": "Label of the none corners mode."
    },
    "preferencesCornersRotateLabel": {
        "message": "Rotate corners:",
        "description": "Label of the rotate custom corners option."
    },
    "preferencesSectionImportExportLabel": {
        "message": "Import/export",
        "description": "Label of the import/export section in the preferences."
    },
    "preferencesImportLabel": {
        "message": "Import from:",
        "description": "Label that ask for the file in witch import the current configuration."
    },
    "preferencesExportLabel": {
        "message": "Export actual configuration",
        "description": "Label of the export button."
    },
    "preferencesExportFileName": {
        "message": "Customizable web home exported",
        "description": "Name of the file that the export operation generates by default."
    },
    "preferencesCancelLabel": {
        "message": "Cancel changes",
        "description": "Label of the cancel preferences button."
    },
    "preferencesSaveLabel": {
        "message": "Save changes",
        "description": "Label of the save preferences button."
    },
    "commonLabelImageTypeFile": {
        "message": "Add image from file:",
        "description": "Common label that ask if an image will be loaded from a file."
    }
}