<?xml version="1.0" encoding="UTF-8" standalone="no"?>
<!-- Created with Inkscape (http://www.inkscape.org/) -->

<svg
   xmlns:osb="http://www.openswatchbook.org/uri/2009/osb"
   xmlns:dc="http://purl.org/dc/elements/1.1/"
   xmlns:cc="http://creativecommons.org/ns#"
   xmlns:rdf="http://www.w3.org/1999/02/22-rdf-syntax-ns#"
   xmlns:svg="http://www.w3.org/2000/svg"
   xmlns="http://www.w3.org/2000/svg"
   xmlns:sodipodi="http://sodipodi.sourceforge.net/DTD/sodipodi-0.dtd"
   xmlns:inkscape="http://www.inkscape.org/namespaces/inkscape"
   width="28"
   height="24"
   viewBox="0 0 7.4083329 6.3500001"
   version="1.1"
   id="svg8"
   style="enable-background:new"
   sodipodi:docname="addColumn.svg"
   inkscape:version="0.92.3 (2405546, 2018-03-11)">
  <defs
     id="defs2">
    <linearGradient
       id="linearGradient3311"
       osb:paint="gradient">
      <stop
         style="stop-color:#b4b4c8;stop-opacity:1;"
         offset="0"
         id="stop3307" />
      <stop
         style="stop-color:#b4b4c8;stop-opacity:0;"
         offset="1"
         id="stop3309" />
    </linearGradient>
  </defs>
  <sodipodi:namedview
     id="base"
     pagecolor="#ffffff"
     bordercolor="#666666"
     borderopacity="1.0"
     inkscape:pageopacity="0.0"
     inkscape:pageshadow="2"
     inkscape:zoom="30.964286"
     inkscape:cx="2.4048448"
     inkscape:cy="11.997693"
     inkscape:document-units="px"
     inkscape:current-layer="layer2"
     showgrid="false"
     units="px"
     inkscape:window-width="1880"
     inkscape:window-height="1055"
     inkscape:window-x="40"
     inkscape:window-y="0"
     inkscape:window-maximized="1" />
  <metadata
     id="metadata5">
    <rdf:RDF>
      <cc:Work
         rdf:about="">
        <dc:format>image/svg+xml</dc:format>
        <dc:type
           rdf:resource="http://purl.org/dc/dcmitype/StillImage" />
        <dc:title></dc:title>
      </cc:Work>
    </rdf:RDF>
  </metadata>
  <g
     inkscape:groupmode="layer"
     id="layer2"
     inkscape:label="Layer 1"
     transform="translate(0,-51.858334)">
    <g
       id="g1027"
       style="display:inline;stroke-width:0.5;stroke-miterlimit:4;stroke-dasharray:none;enable-background:new"
       inkscape:label="Grid"
       transform="matrix(0.2610694,0,0,0.26106976,-0.28217952,43.294087)">
      <rect
         y="48.934689"
         x="1.3361459"
         height="7.9375"
         width="7.9375"
         id="rect957"
         style="fill:#f1f1f1;fill-opacity:1;stroke:#000000;stroke-width:0.51049751;stroke-linecap:butt;stroke-linejoin:round;stroke-miterlimit:4;stroke-dasharray:none;stroke-opacity:1"
         inkscape:label="11" />
      <rect
         y="40.997189"
         x="1.3361459"
         height="7.9375"
         width="7.9375"
         id="rect957-2"
         style="fill:#f1f1f1;fill-opacity:1;stroke:#000000;stroke-width:0.51049751;stroke-linecap:butt;stroke-linejoin:round;stroke-miterlimit:4;stroke-dasharray:none;stroke-opacity:1;enable-background:new"
         inkscape:label="12" />
      <rect
         y="1.3361089"
         x="-40.997154"
         height="7.9375362"
         width="7.9374638"
         id="rect957-9"
         style="fill:#f1f1f1;fill-opacity:1;stroke:#000000;stroke-width:0.51049751;stroke-linecap:butt;stroke-linejoin:round;stroke-miterlimit:4;stroke-dasharray:none;stroke-opacity:1;enable-background:new"
         inkscape:label="13"
         transform="rotate(-90)" />
      <rect
         y="48.934689"
         x="9.2736444"
         height="7.9375"
         width="7.9375"
         id="rect957-0"
         style="fill:#f1f1f1;fill-opacity:1;stroke:#000000;stroke-width:0.51049751;stroke-linecap:butt;stroke-linejoin:round;stroke-miterlimit:4;stroke-dasharray:none;stroke-opacity:1;enable-background:new"
         inkscape:label="21" />
      <rect
         y="40.997189"
         x="9.2736454"
         height="7.9375"
         width="7.9375"
         id="rect957-27"
         style="fill:#f1f1f1;fill-opacity:1;stroke:#000000;stroke-width:0.51049751;stroke-linecap:butt;stroke-linejoin:round;stroke-miterlimit:4;stroke-dasharray:none;stroke-opacity:1;enable-background:new"
         inkscape:label="22" />
      <rect
         y="33.059689"
         x="9.2736454"
         height="7.9375"
         width="7.9375"
         id="rect957-1"
         style="fill:#f1f1f1;fill-opacity:1;stroke:#000000;stroke-width:0.51049751;stroke-linecap:butt;stroke-linejoin:round;stroke-miterlimit:4;stroke-dasharray:none;stroke-opacity:1;enable-background:new"
         inkscape:label="23" />
      <rect
         y="48.934689"
         x="17.211143"
         height="7.9375"
         width="7.9375"
         id="rect957-93"
         style="fill:#00ff00;fill-opacity:1;stroke:#000000;stroke-width:0.51049751;stroke-linecap:butt;stroke-linejoin:round;stroke-miterlimit:4;stroke-dasharray:none;stroke-opacity:1;enable-background:new"
         inkscape:label="31" />
      <rect
         y="40.997189"
         x="17.211145"
         height="7.9375"
         width="7.9375"
         id="rect957-6"
         style="fill:#00ff00;fill-opacity:1;stroke:#000000;stroke-width:0.51049751;stroke-linecap:butt;stroke-linejoin:round;stroke-miterlimit:4;stroke-dasharray:none;stroke-opacity:1;enable-background:new"
         inkscape:label="32" />
      <rect
         y="33.059689"
         x="17.211145"
         height="7.9375"
         width="7.9375"
         id="rect957-06"
         style="fill:#00ff00;fill-opacity:1;stroke:#000000;stroke-width:0.51049751;stroke-linecap:butt;stroke-linejoin:round;stroke-miterlimit:4;stroke-dasharray:none;stroke-opacity:1;enable-background:new"
         inkscape:label="33" />
    </g>
  </g>
</svg>
