<?xml version="1.0" encoding="UTF-8" standalone="no"?>
<svg
   xmlns:dc="http://purl.org/dc/elements/1.1/"
   xmlns:cc="http://creativecommons.org/ns#"
   xmlns:rdf="http://www.w3.org/1999/02/22-rdf-syntax-ns#"
   xmlns:svg="http://www.w3.org/2000/svg"
   xmlns="http://www.w3.org/2000/svg"
   xmlns:sodipodi="http://sodipodi.sourceforge.net/DTD/sodipodi-0.dtd"
   xmlns:inkscape="http://www.inkscape.org/namespaces/inkscape"
   version="1.2"
   width="300"
   height="300"
   viewBox="2074 11474 7937.4998 7937.4998"
   preserveAspectRatio="xMidYMid"
   xml:space="preserve"
   id="svg119"
   sodipodi:docname="preferences.svg"
   inkscape:version="0.92.3 (2405546, 2018-03-11)"
   style="fill-rule:evenodd;stroke-width:28.22200012;stroke-linejoin:round"><metadata
   id="metadata123"><rdf:RDF><cc:Work
       rdf:about=""><dc:format>image/svg+xml</dc:format><dc:type
         rdf:resource="http://purl.org/dc/dcmitype/StillImage" /><dc:title /></cc:Work></rdf:RDF></metadata><sodipodi:namedview
   pagecolor="#ffffff"
   bordercolor="#666666"
   borderopacity="1"
   objecttolerance="10"
   gridtolerance="10"
   guidetolerance="10"
   inkscape:pageopacity="0"
   inkscape:pageshadow="2"
   inkscape:window-width="1288"
   inkscape:window-height="884"
   id="namedview121"
   showgrid="false"
   inkscape:zoom="1.5833333"
   inkscape:cx="150"
   inkscape:cy="150"
   inkscape:window-x="40"
   inkscape:window-y="0"
   inkscape:window-maximized="0"
   inkscape:current-layer="g304-3"
   showguides="true"
   inkscape:guide-bbox="true"
   units="px" />
 <defs
   class="ClipPathGroup"
   id="defs8" />
 <defs
   class="TextShapeIndex"
   id="defs12" />
 <defs
   class="EmbeddedBulletChars"
   id="defs44" />
 <defs
   class="TextEmbeddedBitmaps"
   id="defs46" />
 
<g
   inkscape:groupmode="layer"
   id="layer1"
   inkscape:label="Layer 1"><g
     style="fill-rule:evenodd;stroke-width:28.22200012;stroke-linejoin:round"
     id="g304-3"
     transform="matrix(2.64166,0,0,2.6737717,-3467.2261,-19048.905)"
     inkscape:label="group"><path
       style="display:inline;fill:none;fill-opacity:1;stroke:#444444;stroke-width:69.68830339;stroke-linejoin:round;stroke-miterlimit:4;stroke-dasharray:none;stroke-opacity:1"
       inkscape:connector-curvature="0"
       id="path287-6"
       d="m 2700,11800 c 26.6068,-21.926 324.3776,280.132 352.3266,261.338 27.9481,-18.794 56.5163,-36.021 85.6009,-51.682 29.0839,-15.662 58.6844,-29.757 88.6983,-42.285 30.013,-12.53 60.4396,-23.492 91.1755,-32.889 30.736,-9.397 61.7814,-17.228 93.0336,-23.493 31.2522,-6.264 16.1817,-422.071 47.7437,-425.203 65.0228,-6.151 222.4647,-5.877 282.8428,0 31.5615,3.132 16.4909,418.939 47.7436,425.204 31.2518,6.264 62.2977,14.095 93.0336,23.492 30.736,9.396 61.1626,20.359 91.176,32.888 30.0133,12.529 59.6134,26.624 88.6978,42.286 29.0843,15.661 57.6521,32.888 85.601,51.682 27.9489,18.794 325.7197,-283.264 352.3266,-261.338 55.379,46.169 157.1327,148.177 200,200 21.9261,26.607 -280.1318,324.378 -261.3381,352.327 18.7938,27.948 36.0211,56.516 51.6824,85.601 15.6614,29.084 29.7562,58.684 42.2853,88.697 12.529,30.014 23.4922,60.44 32.8889,91.176 9.3966,30.736 17.2274,61.782 23.4917,93.034 6.2642,31.252 422.0707,16.181 425.2034,47.744 6.1524,65.022 5.8766,222.465 0,282.842 -3.1322,31.562 -418.9385,16.492 -425.203,47.744 -6.2645,31.252 -14.0948,62.298 -23.4917,93.034 -9.3968,30.736 -20.3603,61.162 -32.8895,91.175 -12.5294,30.014 -26.6244,59.614 -42.2854,88.699 -15.6615,29.084 -32.889,57.652 -51.6823,85.6 -18.7933,27.949 283.2641,325.72 261.3383,352.327 -46.1679,55.38 -148.1782,157.131 -200,200 -26.6067,21.926 -324.3783,-280.132 -352.3266,-261.338 -27.9482,18.794 -56.5163,36.021 -85.6009,51.682 -29.0839,15.662 -58.6851,29.756 -88.6983,42.285 -30.013,12.53 -60.4396,23.492 -91.1755,32.889 -30.736,9.397 -61.7814,17.228 -93.0336,23.493 -31.2522,6.264 -16.1818,422.071 -47.7437,425.203 -65.0225,6.151 -222.4655,5.877 -282.8428,0 -31.5615,-3.132 -16.4916,-418.939 -47.7436,-425.204 -31.2518,-6.264 -62.2977,-14.095 -93.0336,-23.492 -30.736,-9.396 -61.1626,-20.359 -91.176,-32.888 -30.0133,-12.529 -59.6134,-26.624 -88.6978,-42.286 -29.0843,-15.661 -57.6528,-32.889 -85.601,-51.682 -27.9489,-18.794 -325.7197,283.264 -352.3266,261.338 -55.379,-46.169 -157.1324,-148.177 -200,-200 -21.9261,-26.607 280.1317,-324.378 261.3381,-352.327 -18.7938,-27.948 -36.0211,-56.516 -51.6824,-85.601 -15.6614,-29.084 -29.7562,-58.684 -42.2853,-88.697 -12.529,-30.014 -23.4922,-60.44 -32.8889,-91.176 -9.3966,-30.736 -17.2274,-61.782 -23.4917,-93.034 -6.2642,-31.252 -422.0707,-16.181 -425.2034,-47.744 -6.1524,-65.022 -5.8766,-222.465 0,-282.842 3.1322,-31.562 418.9385,-16.492 425.203,-47.744 6.2645,-31.252 14.0948,-62.298 23.4917,-93.034 9.3968,-30.736 20.3602,-61.162 32.8895,-91.175 12.5294,-30.014 26.6244,-59.614 42.2854,-88.699 15.6615,-29.084 32.8882,-57.652 51.6823,-85.6 18.7933,-27.949 -283.264,-325.721 -261.3383,-352.327 46.1683,-55.379 148.1769,-157.133 200,-200 z"
       sodipodi:nodetypes="csssssccsssssccsssssccsssssccsssssccsssssccsssssccssssscc"
       inkscape:label="exterior" /><path
       style="display:inline;fill:none;stroke:#44444f;stroke-width:69.68830339;stroke-linejoin:round;stroke-miterlimit:4;stroke-dasharray:none;stroke-opacity:0.94117647"
       inkscape:connector-curvature="0"
       id="path299-7"
       d="m 3600,12184.077 c 50.7411,0 99.9832,4.844 147.3082,14.113 47.325,9.269 92.733,22.964 135.8058,40.666 43.0729,17.702 83.8106,39.412 121.7951,64.711 37.9845,25.3 73.2157,54.188 105.2757,86.248 32.0599,32.06 60.9485,67.291 86.2477,105.276 25.2993,37.984 47.0091,78.722 64.7114,121.795 17.7023,43.073 31.3971,88.481 40.6664,135.806 9.2692,47.325 14.1129,96.567 14.1129,147.308 0,50.741 -4.8437,99.983 -14.1129,147.308 -9.2693,47.325 -22.9641,92.733 -40.6664,135.806 -17.7023,43.073 -39.4121,83.811 -64.7114,121.795 -25.2992,37.985 -54.1878,73.216 -86.2477,105.276 -32.06,32.06 -67.2912,60.948 -105.2757,86.248 -37.9845,25.299 -78.7222,47.009 -121.7951,64.711 -43.0728,17.702 -88.4808,31.397 -135.8058,40.666 -47.325,9.269 -96.5671,14.113 -147.3082,14.113 -50.7411,0 -99.9831,-4.844 -147.3082,-14.113 -47.325,-9.269 -92.733,-22.964 -135.8058,-40.666 -43.0729,-17.702 -83.8106,-39.412 -121.7951,-64.711 -37.9845,-25.3 -73.2157,-54.188 -105.2757,-86.248 -32.0599,-32.06 -60.9485,-67.291 -86.2477,-105.276 -25.2993,-37.984 -47.0091,-78.722 -64.7114,-121.795 -17.7023,-43.073 -31.3971,-88.481 -40.6664,-135.806 -9.2692,-47.325 -14.1129,-96.567 -14.1129,-147.308 0,-50.741 4.8437,-99.983 14.1129,-147.308 9.2693,-47.325 22.9641,-92.733 40.6664,-135.806 17.7023,-43.073 39.4121,-83.811 64.7114,-121.795 25.2992,-37.985 54.1878,-73.216 86.2477,-105.276 32.06,-32.06 67.2912,-60.948 105.2757,-86.248 37.9845,-25.299 78.7222,-47.009 121.7951,-64.711 43.0728,-17.702 88.4808,-31.397 135.8058,-40.666 47.3251,-9.269 96.5671,-14.113 147.3082,-14.113 z"
       sodipodi:nodetypes="sssssssssssssssssssssssssssssssss"
       inkscape:label="circle int" /></g></g></svg>